{
 "focus": null,
 "configuration": {
  "relationships": {},
  "analytics": {
   "clustering": {
    "index": 0,
    "requires_multi": false,
    "enabled": true,
    "label": "Clustering",
    "id": "clustering"
   },
   "distribution": {
    "index": 1,
    "requires_multi": false,
    "enabled": true,
    "label": "Distribution",
    "id": "distribution"
   }
  },
  "drivers": {},
  "authoring": {
   "selection_made": false,
   "is_linked_to_chart": true,
   "verbosity": "medium",
   "format": "paragraph",
   "run_support_story": false,
   "complementary_story": false
  }
 },
 "data": {
  "rows": [
   [
    {
     "id": 0,
     "value": "Alcoholic Beverages"
    },
    {
     "id": 0,
     "value": 3194174.499999985
    },
    {
     "id": 0,
     "value": 661354.1400000023
    }
   ],
   [
    {
     "id": 1,
     "value": "Baked Goods"
    },
    {
     "id": 0,
     "value": 800596.8200000003
    },
    {
     "id": 0,
     "value": 409267.29000000074
    }
   ],
   [
    {
     "id": 12,
     "value": "Baking Goods"
    },
    {
     "id": 0,
     "value": 7959698.150000089
    },
    {
     "id": 0,
     "value": 3911752.0900000054
    }
   ],
   [
    {
     "id": 2,
     "value": "Beverages"
    },
    {
     "id": 0,
     "value": 6975033.659999999
    },
    {
     "id": 0,
     "value": 3101839.489999995
    }
   ],
   [
    {
     "id": 3,
     "value": "Breakfast Foods"
    },
    {
     "id": 0,
     "value": 983501.0399999974
    },
    {
     "id": 0,
     "value": 494339.5899999991
    }
   ],
   [
    {
     "id": 4,
     "value": "Canned Foods"
    },
    {
     "id": 0,
     "value": 7246883.179999971
    },
    {
     "id": 0,
     "value": 3098884.969999986
    }
   ],
   [
    {
     "id": 13,
     "value": "Canned Products"
    },
    {
     "id": 0,
     "value": 259912.86
    },
    {
     "id": 0,
     "value": 137494.12
    }
   ],
   [
    {
     "id": 5,
     "value": "Dairy"
    },
    {
     "id": 0,
     "value": 6365664.55
    },
    {
     "id": 0,
     "value": 1981973.0000000007
    }
   ],
   [
    {
     "id": 6,
     "value": "Deli"
    },
    {
     "id": 0,
     "value": 18658064.129999984
    },
    {
     "id": 0,
     "value": 7799907.939999992
    }
   ],
   [
    {
     "id": 14,
     "value": "Eggs"
    },
    {
     "id": 0,
     "value": 300078.1099999998
    },
    {
     "id": 0,
     "value": 146873.75000000032
    }
   ],
   [
    {
     "id": 15,
     "value": "Frozen Foods"
    },
    {
     "id": 0,
     "value": 13228341.429999996
    },
    {
     "id": 0,
     "value": 6513548.429999962
    }
   ],
   [
    {
     "id": 7,
     "value": "Meat"
    },
    {
     "id": 0,
     "value": 97522.36999999997
    },
    {
     "id": 0,
     "value": 44736.31999999999
    }
   ],
   [
    {
     "id": 8,
     "value": "Produce"
    },
    {
     "id": 0,
     "value": 20801257.439999864
    },
    {
     "id": 0,
     "value": 9387922.140000043
    }
   ],
   [
    {
     "id": 9,
     "value": "Seafood"
    },
    {
     "id": 0,
     "value": 44520.150000000096
    },
    {
     "id": 0,
     "value": 26878.95000000004
    }
   ],
   [
    {
     "id": 10,
     "value": "Snack Foods"
    },
    {
     "id": 0,
     "value": 6543326.249999967
    },
    {
     "id": 0,
     "value": 3175979.9899999974
    }
   ],
   [
    {
     "id": 11,
     "value": "Snacks"
    },
    {
     "id": 0,
     "value": 1447012.0300000007
    },
    {
     "id": 0,
     "value": 624051.0400000028
    }
   ],
   [
    {
     "id": 16,
     "value": "Starchy Foods"
    },
    {
     "id": 0,
     "value": 3767080.5100000016
    },
    {
     "id": 0,
     "value": 1887183.4699999965
    }
   ]
  ],
  "measures": [
   {
    "name": "Revenue",
    "format": "number",
    "up_sentiment": "neutral",
    "aggregation": null,
    "outside": false,
    "percentage": "non-percentage",
    "id": "Entxpp"
   },
   {
    "name": "Margin Amount",
    "format": "number",
    "up_sentiment": "neutral",
    "aggregation": null,
    "outside": false,
    "percentage": "non-percentage",
    "id": "eDWeN"
   }
  ],
  "dimensions": [
   {
    "other_labels": null,
    "format": null,
    "labels": [
     {
      "plural": "entities",
      "singular": "entity"
     }
    ],
    "id": "sLKMmx",
    "name": "Product Group"
   }
  ]
 },
 "api_version": 2,
 "metadata": {
  "platform": "Test"
 }
}
