{
  "metadata": {
    "platform": "TEST"
  },
  "api_version": 2,
  "data": {
    "measures": [
      {
        "id": "KzYTKB",
        "outside": false,
        "up_sentiment": "good",
        "format": "money",
        "name": "Sales $"
      }
    ],
    "dimensions": [
      {
        "id": "NWYgjV",
        "labels": [
          {
            "singular": "period",
            "plural": "periods"
          }
        ],
        "name": "YearMonth"
      },
      {
        "id": "nSgd",
        "labels": [
          {
            "singular": "entity",
            "plural": "entities"
          }
        ],
        "name": "Region Name"
      }
    ],
    "rows": [
      [
        {
          "id": 13,
          "value": "Jan-06"
        },
        {
          "id": 3,
          "value": "Central"
        },
        {
          "id": 0,
          "value": 2290752.209999999
        }
      ],
      [
        {
          "id": 13,
          "value": "Jan-06"
        },
        {
          "id": 2,
          "value": "Northeast"
        },
        {
          "id": 0,
          "value": 158618.09999999992
        }
      ],
      [
        {
          "id": 11,
          "value": "Feb-06"
        },
        {
          "id": 3,
          "value": "Central"
        },
        {
          "id": 0,
          "value": 2684560.5300000003
        }
      ],
      [
        {
          "id": 11,
          "value": "Feb-06"
        },
        {
          "id": 2,
          "value": "Northeast"
        },
        {
          "id": 0,
          "value": 191975.00999999986
        }
      ],
      [
        {
          "id": 12,
          "value": "Mar-06"
        },
        {
          "id": 3,
          "value": "Central"
        },
        {
          "id": 0,
          "value": 2002401.1500000001
        }
      ],
      [
        {
          "id": 12,
          "value": "Mar-06"
        },
        {
          "id": 2,
          "value": "Northeast"
        },
        {
          "id": 0,
          "value": 603965.2600000007
        }
      ],
      [
        {
          "id": 15,
          "value": "Apr-06"
        },
        {
          "id": 3,
          "value": "Central"
        },
        {
          "id": 0,
          "value": 1735112.2299999995
        }
      ],
      [
        {
          "id": 15,
          "value": "Apr-06"
        },
        {
          "id": 2,
          "value": "Northeast"
        },
        {
          "id": 0,
          "value": 76949.81999999996
        }
      ],
      [
        {
          "id": 16,
          "value": "May-06"
        },
        {
          "id": 3,
          "value": "Central"
        },
        {
          "id": 0,
          "value": 1620236.9700000014
        }
      ],
      [
        {
          "id": 16,
          "value": "May-06"
        },
        {
          "id": 2,
          "value": "Northeast"
        },
        {
          "id": 0,
          "value": 197981.92999999996
        }
      ],
      [
        {
          "id": 7,
          "value": "Jun-06"
        },
        {
          "id": 3,
          "value": "Central"
        },
        {
          "id": 0,
          "value": 1698403.3900000006
        }
      ],
      [
        {
          "id": 7,
          "value": "Jun-06"
        },
        {
          "id": 2,
          "value": "Northeast"
        },
        {
          "id": 0,
          "value": 133058.77999999997
        }
      ],
      [
        {
          "id": 10,
          "value": "Jul-06"
        },
        {
          "id": 3,
          "value": "Central"
        },
        {
          "id": 0,
          "value": 1605922.5200000007
        }
      ],
      [
        {
          "id": 10,
          "value": "Jul-06"
        },
        {
          "id": 2,
          "value": "Northeast"
        },
        {
          "id": 0,
          "value": 77195.92999999993
        }
      ],
      [
        {
          "id": 6,
          "value": "Aug-06"
        },
        {
          "id": 3,
          "value": "Central"
        },
        {
          "id": 0,
          "value": 2701130.5500000017
        }
      ],
      [
        {
          "id": 6,
          "value": "Aug-06"
        },
        {
          "id": 2,
          "value": "Northeast"
        },
        {
          "id": 0,
          "value": 202320.00999999995
        }
      ],
      [
        {
          "id": 4,
          "value": "Sep-06"
        },
        {
          "id": 3,
          "value": "Central"
        },
        {
          "id": 0,
          "value": 2052061.860000001
        }
      ],
      [
        {
          "id": 4,
          "value": "Sep-06"
        },
        {
          "id": 2,
          "value": "Northeast"
        },
        {
          "id": 0,
          "value": 611451.7800000005
        }
      ],
      [
        {
          "id": 8,
          "value": "Oct-06"
        },
        {
          "id": 3,
          "value": "Central"
        },
        {
          "id": 0,
          "value": 2427066.269999997
        }
      ],
      [
        {
          "id": 8,
          "value": "Oct-06"
        },
        {
          "id": 2,
          "value": "Northeast"
        },
        {
          "id": 0,
          "value": 167828.06999999992
        }
      ],
      [
        {
          "id": 5,
          "value": "Nov-06"
        },
        {
          "id": 3,
          "value": "Central"
        },
        {
          "id": 0,
          "value": 2382446.36
        }
      ],
      [
        {
          "id": 5,
          "value": "Nov-06"
        },
        {
          "id": 2,
          "value": "Northeast"
        },
        {
          "id": 0,
          "value": 693860.6600000005
        }
      ],
      [
        {
          "id": 14,
          "value": "Dec-06"
        },
        {
          "id": 3,
          "value": "Central"
        },
        {
          "id": 0,
          "value": 2019138.6499999985
        }
      ],
      [
        {
          "id": 14,
          "value": "Dec-06"
        },
        {
          "id": 2,
          "value": "Northeast"
        },
        {
          "id": 0,
          "value": 148994.0299999999
        }
      ],
      [
        {
          "id": 2,
          "value": "Jan-07"
        },
        {
          "id": 3,
          "value": "Central"
        },
        {
          "id": 0,
          "value": 2065546.5800000005
        }
      ],
      [
        {
          "id": 2,
          "value": "Jan-07"
        },
        {
          "id": 2,
          "value": "Northeast"
        },
        {
          "id": 0,
          "value": 243917.93000000014
        }
      ],
      [
        {
          "id": 17,
          "value": "Feb-07"
        },
        {
          "id": 3,
          "value": "Central"
        },
        {
          "id": 0,
          "value": 2232836.639999998
        }
      ],
      [
        {
          "id": 17,
          "value": "Feb-07"
        },
        {
          "id": 2,
          "value": "Northeast"
        },
        {
          "id": 0,
          "value": 179717.17999999996
        }
      ],
      [
        {
          "id": 23,
          "value": "Mar-07"
        },
        {
          "id": 3,
          "value": "Central"
        },
        {
          "id": 0,
          "value": 1176945.2599999986
        }
      ],
      [
        {
          "id": 23,
          "value": "Mar-07"
        },
        {
          "id": 2,
          "value": "Northeast"
        },
        {
          "id": 0,
          "value": 677579.9899999998
        }
      ],
      [
        {
          "id": 0,
          "value": "Apr-07"
        },
        {
          "id": 3,
          "value": "Central"
        },
        {
          "id": 0,
          "value": 1531559.7600000002
        }
      ],
      [
        {
          "id": 0,
          "value": "Apr-07"
        },
        {
          "id": 2,
          "value": "Northeast"
        },
        {
          "id": 0,
          "value": 226345.87999999992
        }
      ],
      [
        {
          "id": 18,
          "value": "May-07"
        },
        {
          "id": 3,
          "value": "Central"
        },
        {
          "id": 0,
          "value": 1644510.7599999998
        }
      ],
      [
        {
          "id": 18,
          "value": "May-07"
        },
        {
          "id": 2,
          "value": "Northeast"
        },
        {
          "id": 0,
          "value": 321832.0800000001
        }
      ],
      [
        {
          "id": 1,
          "value": "Jun-07"
        },
        {
          "id": 3,
          "value": "Central"
        },
        {
          "id": 0,
          "value": 1992410.7699999977
        }
      ],
      [
        {
          "id": 1,
          "value": "Jun-07"
        },
        {
          "id": 2,
          "value": "Northeast"
        },
        {
          "id": 0,
          "value": 93950.79000000002
        }
      ],
      [
        {
          "id": 21,
          "value": "Jul-07"
        },
        {
          "id": 3,
          "value": "Central"
        },
        {
          "id": 0,
          "value": 2041607.2400000005
        }
      ],
      [
        {
          "id": 21,
          "value": "Jul-07"
        },
        {
          "id": 2,
          "value": "Northeast"
        },
        {
          "id": 0,
          "value": 232852.4800000001
        }
      ],
      [
        {
          "id": 19,
          "value": "Aug-07"
        },
        {
          "id": 3,
          "value": "Central"
        },
        {
          "id": 0,
          "value": 2258584.689999996
        }
      ],
      [
        {
          "id": 19,
          "value": "Aug-07"
        },
        {
          "id": 2,
          "value": "Northeast"
        },
        {
          "id": 0,
          "value": 191465.11999999997
        }
      ],
      [
        {
          "id": 3,
          "value": "Sep-07"
        },
        {
          "id": 3,
          "value": "Central"
        },
        {
          "id": 0,
          "value": 1313826.169999998
        }
      ],
      [
        {
          "id": 3,
          "value": "Sep-07"
        },
        {
          "id": 2,
          "value": "Northeast"
        },
        {
          "id": 0,
          "value": 725309.4200000004
        }
      ],
      [
        {
          "id": 22,
          "value": "Oct-07"
        },
        {
          "id": 3,
          "value": "Central"
        },
        {
          "id": 0,
          "value": 2763119.46
        }
      ],
      [
        {
          "id": 22,
          "value": "Oct-07"
        },
        {
          "id": 2,
          "value": "Northeast"
        },
        {
          "id": 0,
          "value": 249483.76999999987
        }
      ],
      [
        {
          "id": 20,
          "value": "Nov-07"
        },
        {
          "id": 3,
          "value": "Central"
        },
        {
          "id": 0,
          "value": 1238047.0999999994
        }
      ],
      [
        {
          "id": 20,
          "value": "Nov-07"
        },
        {
          "id": 2,
          "value": "Northeast"
        },
        {
          "id": 0,
          "value": 705726.6800000004
        }
      ],
      [
        {
          "id": 9,
          "value": "Dec-07"
        },
        {
          "id": 3,
          "value": "Central"
        },
        {
          "id": 0,
          "value": 1333029.4899999981
        }
      ],
      [
        {
          "id": 9,
          "value": "Dec-07"
        },
        {
          "id": 2,
          "value": "Northeast"
        },
        {
          "id": 0,
          "value": 112839.11000000003
        }
      ]
    ]
  },
  "configuration": {
    "authoring": {
      "format": "paragraph",
      "is_linked_to_chart": true,
      "verbosity": "medium",
      "run_support_story": false
    },
    "analytics": {
      "correlation": {
        "enabled": true,
        "index": 3
      },
      "trendline": {
        "id": "trendline",
        "options": {
          "prediction_periods": 0
        },
        "enabled": true,
        "thresholds": {
          "inclusion": {
            "value": 0.95
          }
        },
        "index": 1
      },
      "volatility": {
        "enabled": true,
        "index": 2
      },
      "segments": {
        "enabled": true,
        "thresholds": {
          "inclusion": {
            "value": 0.4
          }
        },
        "index": 0
      }
    }
  }
}
